EESchema Schematic File Version 4
EELAYER 30 0
EELAYER END
$Descr A4 11693 8268
encoding utf-8
Sheet 1 1
Title ""
Date ""
Rev ""
Comp ""
Comment1 ""
Comment2 ""
Comment3 ""
Comment4 ""
$EndDescr
$Comp
L Transistor_BJT:TIP41 Q4
U 1 1 5E680871
P 6700 3600
F 0 "Q4" H 6891 3646 50  0000 L CNN
F 1 "TIP41" H 6891 3555 50  0000 L CNN
F 2 "Package_TO_SOT_THT:TO-220-3_Vertical" H 6950 3525 50  0001 L CIN
F 3 "https://www.centralsemi.com/get_document.php?cmp=1&mergetype=pd&mergepath=pd&pdf_id=tip41.PDF" H 6700 3600 50  0001 L CNN
	1    6700 3600
	-1   0    0    -1  
$EndComp
$Comp
L Transistor_BJT:TIP42 Q3
U 1 1 5E6811EA
P 6700 2500
F 0 "Q3" H 6891 2454 50  0000 L CNN
F 1 "TIP42" H 6891 2545 50  0000 L CNN
F 2 "Package_TO_SOT_THT:TO-220-3_Vertical" H 6950 2425 50  0001 L CIN
F 3 "https://www.centralsemi.com/get_document.php?cmp=1&mergetype=pd&mergepath=pd&pdf_id=TIP42.PDF" H 6700 2500 50  0001 L CNN
	1    6700 2500
	-1   0    0    1   
$EndComp
$Comp
L Transistor_BJT:TIP42 Q1
U 1 1 5E681B46
P 5250 2500
F 0 "Q1" H 5441 2454 50  0000 L CNN
F 1 "TIP42" H 5441 2545 50  0000 L CNN
F 2 "Package_TO_SOT_THT:TO-220-3_Vertical" H 5500 2425 50  0001 L CIN
F 3 "https://www.centralsemi.com/get_document.php?cmp=1&mergetype=pd&mergepath=pd&pdf_id=TIP42.PDF" H 5250 2500 50  0001 L CNN
	1    5250 2500
	1    0    0    1   
$EndComp
$Comp
L Transistor_BJT:TIP41 Q2
U 1 1 5E680398
P 5250 3600
F 0 "Q2" H 5441 3646 50  0000 L CNN
F 1 "TIP41" H 5441 3555 50  0000 L CNN
F 2 "Package_TO_SOT_THT:TO-220-3_Vertical" H 5500 3525 50  0001 L CIN
F 3 "https://www.centralsemi.com/get_document.php?cmp=1&mergetype=pd&mergepath=pd&pdf_id=tip41.PDF" H 5250 3600 50  0001 L CNN
	1    5250 3600
	1    0    0    -1  
$EndComp
$Comp
L Diode:1N4001 D1
U 1 1 5E68AACF
P 5700 2750
F 0 "D1" V 5654 2829 50  0000 L CNN
F 1 "1N4001" V 5745 2829 50  0000 L CNN
F 2 "Diode_THT:D_DO-41_SOD81_P5.08mm_Vertical_KathodeUp" H 5700 2575 50  0001 C CNN
F 3 "http://www.vishay.com/docs/88503/1n4001.pdf" H 5700 2750 50  0001 C CNN
	1    5700 2750
	0    1    1    0   
$EndComp
Wire Wire Line
	5350 2700 5350 3000
Wire Wire Line
	6600 2700 6600 3000
$Comp
L Diode:1N4001 D2
U 1 1 5E694E58
P 5700 3250
F 0 "D2" V 5654 3329 50  0000 L CNN
F 1 "1N4001" V 5745 3329 50  0000 L CNN
F 2 "Diode_THT:D_DO-41_SOD81_P5.08mm_Vertical_KathodeUp" H 5700 3075 50  0001 C CNN
F 3 "http://www.vishay.com/docs/88503/1n4001.pdf" H 5700 3250 50  0001 C CNN
	1    5700 3250
	0    1    1    0   
$EndComp
$Comp
L Diode:1N4001 D4
U 1 1 5E695608
P 6200 3250
F 0 "D4" V 6154 3329 50  0000 L CNN
F 1 "1N4001" V 6245 3329 50  0000 L CNN
F 2 "Diode_THT:D_DO-41_SOD81_P5.08mm_Vertical_KathodeUp" H 6200 3075 50  0001 C CNN
F 3 "http://www.vishay.com/docs/88503/1n4001.pdf" H 6200 3250 50  0001 C CNN
	1    6200 3250
	0    1    1    0   
$EndComp
$Comp
L Diode:1N4001 D3
U 1 1 5E6959BE
P 6200 2750
F 0 "D3" V 6154 2829 50  0000 L CNN
F 1 "1N4001" V 6245 2829 50  0000 L CNN
F 2 "Diode_THT:D_DO-41_SOD81_P5.08mm_Vertical_KathodeUp" H 6200 2575 50  0001 C CNN
F 3 "http://www.vishay.com/docs/88503/1n4001.pdf" H 6200 2750 50  0001 C CNN
	1    6200 2750
	0    1    1    0   
$EndComp
Wire Wire Line
	5700 3100 5700 3000
Wire Wire Line
	6200 2900 6200 3000
Wire Wire Line
	6200 3400 6200 4000
Wire Wire Line
	6200 4000 5950 4000
Wire Wire Line
	5700 4000 5700 3400
Wire Wire Line
	5350 3800 5350 4000
Wire Wire Line
	5350 4000 5700 4000
Connection ~ 5700 4000
Wire Wire Line
	6200 4000 6600 4000
Wire Wire Line
	6600 4000 6600 3800
Connection ~ 6200 4000
Wire Wire Line
	6600 3000 6200 3000
Connection ~ 6600 3000
Wire Wire Line
	6600 3000 6600 3400
Connection ~ 6200 3000
Wire Wire Line
	6200 3000 6200 3100
Wire Wire Line
	5700 3000 5350 3000
Connection ~ 5700 3000
Wire Wire Line
	5700 3000 5700 2900
Connection ~ 5350 3000
Wire Wire Line
	5350 3000 5350 3400
$Comp
L Isolator:4N35 U1
U 1 1 5E69DD03
P 4150 2500
F 0 "U1" H 4150 2825 50  0000 C CNN
F 1 "4N35" H 4150 2734 50  0000 C CNN
F 2 "Package_DIP:DIP-6_W7.62mm" H 3950 2300 50  0001 L CIN
F 3 "https://www.vishay.com/docs/81181/4n35.pdf" H 4150 2500 50  0001 L CNN
	1    4150 2500
	1    0    0    -1  
$EndComp
$Comp
L Isolator:4N35 U2
U 1 1 5E69E63F
P 7850 2500
F 0 "U2" H 7850 2825 50  0000 C CNN
F 1 "4N35" H 7850 2734 50  0000 C CNN
F 2 "Package_DIP:DIP-6_W7.62mm" H 7650 2300 50  0001 L CIN
F 3 "https://www.vishay.com/docs/81181/4n35.pdf" H 7850 2500 50  0001 L CNN
	1    7850 2500
	-1   0    0    -1  
$EndComp
$Comp
L Device:R R3
U 1 1 5E69F32B
P 4850 2500
F 0 "R3" V 4643 2500 50  0000 C CNN
F 1 "100" V 4734 2500 50  0000 C CNN
F 2 "Resistor_THT:R_Axial_DIN0207_L6.3mm_D2.5mm_P10.16mm_Horizontal" V 4780 2500 50  0001 C CNN
F 3 "~" H 4850 2500 50  0001 C CNN
	1    4850 2500
	0    1    1    0   
$EndComp
Wire Wire Line
	5050 2500 5000 2500
Wire Wire Line
	4450 2500 4600 2500
Wire Wire Line
	4450 2600 4600 2600
Wire Wire Line
	4600 2600 4600 4200
Wire Wire Line
	4600 4200 7100 4200
Wire Wire Line
	7100 4200 7100 3600
Wire Wire Line
	7100 3600 6900 3600
Wire Wire Line
	7550 2600 7400 2600
Wire Wire Line
	7400 2600 7400 4400
Wire Wire Line
	7400 4400 4900 4400
Wire Wire Line
	4900 4400 4900 3600
Wire Wire Line
	4900 3600 5050 3600
NoConn ~ 7550 2400
NoConn ~ 4450 2400
$Comp
L Device:R R1
U 1 1 5E6BDF82
P 3650 2800
F 0 "R1" H 3580 2754 50  0000 R CNN
F 1 "270" H 3580 2845 50  0000 R CNN
F 2 "Resistor_THT:R_Axial_DIN0207_L6.3mm_D2.5mm_P10.16mm_Horizontal" V 3580 2800 50  0001 C CNN
F 3 "~" H 3650 2800 50  0001 C CNN
	1    3650 2800
	-1   0    0    1   
$EndComp
$Comp
L Device:R R6
U 1 1 5E6BE460
P 8400 2800
F 0 "R6" H 8330 2754 50  0000 R CNN
F 1 "270" H 8330 2845 50  0000 R CNN
F 2 "Resistor_THT:R_Axial_DIN0207_L6.3mm_D2.5mm_P10.16mm_Horizontal" V 8330 2800 50  0001 C CNN
F 3 "~" H 8400 2800 50  0001 C CNN
	1    8400 2800
	-1   0    0    1   
$EndComp
Wire Wire Line
	8400 2650 8400 2600
Wire Wire Line
	8400 2600 8150 2600
Wire Wire Line
	3850 2600 3650 2600
Wire Wire Line
	3650 2600 3650 2650
$Comp
L power:GND #PWR05
U 1 1 5E952C5C
P 3650 2950
F 0 "#PWR05" H 3650 2700 50  0001 C CNN
F 1 "GND" H 3655 2777 50  0000 C CNN
F 2 "" H 3650 2950 50  0001 C CNN
F 3 "" H 3650 2950 50  0001 C CNN
	1    3650 2950
	1    0    0    -1  
$EndComp
$Comp
L power:GND #PWR010
U 1 1 5E95644E
P 8400 2950
F 0 "#PWR010" H 8400 2700 50  0001 C CNN
F 1 "GND" H 8405 2777 50  0000 C CNN
F 2 "" H 8400 2950 50  0001 C CNN
F 3 "" H 8400 2950 50  0001 C CNN
	1    8400 2950
	1    0    0    -1  
$EndComp
$Comp
L power:+12V #PWR07
U 1 1 5E958F36
P 5950 2050
F 0 "#PWR07" H 5950 1900 50  0001 C CNN
F 1 "+12V" H 5965 2223 50  0000 C CNN
F 2 "" H 5950 2050 50  0001 C CNN
F 3 "" H 5950 2050 50  0001 C CNN
	1    5950 2050
	1    0    0    -1  
$EndComp
Connection ~ 5950 2050
Text GLabel 3850 2400 0    50   Input ~ 0
S1
Text GLabel 8150 2400 2    50   Input ~ 0
S2
$Comp
L Device:R R2
U 1 1 5E96075E
P 4600 2150
F 0 "R2" V 4393 2150 50  0000 C CNN
F 1 "1K" V 4484 2150 50  0000 C CNN
F 2 "Resistor_THT:R_Axial_DIN0207_L6.3mm_D2.5mm_P10.16mm_Horizontal" V 4530 2150 50  0001 C CNN
F 3 "~" H 4600 2150 50  0001 C CNN
	1    4600 2150
	-1   0    0    1   
$EndComp
Connection ~ 4600 2500
Wire Wire Line
	4600 2500 4700 2500
Wire Wire Line
	4600 2300 4600 2500
$Comp
L Device:R R5
U 1 1 5E962EED
P 7350 2150
F 0 "R5" V 7143 2150 50  0000 C CNN
F 1 "1K" V 7234 2150 50  0000 C CNN
F 2 "Resistor_THT:R_Axial_DIN0207_L6.3mm_D2.5mm_P10.16mm_Horizontal" V 7280 2150 50  0001 C CNN
F 3 "~" H 7350 2150 50  0001 C CNN
	1    7350 2150
	-1   0    0    1   
$EndComp
Wire Wire Line
	7350 2300 7350 2500
Connection ~ 7350 2500
Wire Wire Line
	7350 2500 7550 2500
Wire Wire Line
	7250 2500 7350 2500
$Comp
L power:+12V #PWR09
U 1 1 5E966BB7
P 7350 2000
F 0 "#PWR09" H 7350 1850 50  0001 C CNN
F 1 "+12V" H 7365 2173 50  0000 C CNN
F 2 "" H 7350 2000 50  0001 C CNN
F 3 "" H 7350 2000 50  0001 C CNN
	1    7350 2000
	1    0    0    -1  
$EndComp
$Comp
L power:+12V #PWR06
U 1 1 5E96700B
P 4600 2000
F 0 "#PWR06" H 4600 1850 50  0001 C CNN
F 1 "+12V" H 4615 2173 50  0000 C CNN
F 2 "" H 4600 2000 50  0001 C CNN
F 3 "" H 4600 2000 50  0001 C CNN
	1    4600 2000
	1    0    0    -1  
$EndComp
$Comp
L Device:R R4
U 1 1 5E69F783
P 7100 2500
F 0 "R4" V 6893 2500 50  0000 C CNN
F 1 "100" V 6984 2500 50  0000 C CNN
F 2 "Resistor_THT:R_Axial_DIN0207_L6.3mm_D2.5mm_P10.16mm_Horizontal" V 7030 2500 50  0001 C CNN
F 3 "~" H 7100 2500 50  0001 C CNN
	1    7100 2500
	0    1    1    0   
$EndComp
Wire Wire Line
	6950 2500 6900 2500
$Comp
L power:GNDPWR #PWR08
U 1 1 5E96C7E3
P 5950 4000
F 0 "#PWR08" H 5950 3800 50  0001 C CNN
F 1 "GNDPWR" H 5954 3846 50  0000 C CNN
F 2 "" H 5950 3950 50  0001 C CNN
F 3 "" H 5950 3950 50  0001 C CNN
	1    5950 4000
	1    0    0    -1  
$EndComp
Connection ~ 5950 4000
Wire Wire Line
	5950 4000 5700 4000
Text GLabel 6200 3000 0    50   Input ~ 0
M-
Text GLabel 5700 3000 2    50   Input ~ 0
M+
$Comp
L power:PWR_FLAG #FLG01
U 1 1 5E972B26
P 1250 1300
F 0 "#FLG01" H 1250 1375 50  0001 C CNN
F 1 "PWR_FLAG" H 1250 1473 50  0000 C CNN
F 2 "" H 1250 1300 50  0001 C CNN
F 3 "~" H 1250 1300 50  0001 C CNN
	1    1250 1300
	1    0    0    -1  
$EndComp
$Comp
L power:PWR_FLAG #FLG02
U 1 1 5E9734E6
P 1650 1300
F 0 "#FLG02" H 1650 1375 50  0001 C CNN
F 1 "PWR_FLAG" H 1650 1473 50  0000 C CNN
F 2 "" H 1650 1300 50  0001 C CNN
F 3 "~" H 1650 1300 50  0001 C CNN
	1    1650 1300
	1    0    0    -1  
$EndComp
$Comp
L power:PWR_FLAG #FLG03
U 1 1 5E973B36
P 2050 1300
F 0 "#FLG03" H 2050 1375 50  0001 C CNN
F 1 "PWR_FLAG" H 2050 1473 50  0000 C CNN
F 2 "" H 2050 1300 50  0001 C CNN
F 3 "~" H 2050 1300 50  0001 C CNN
	1    2050 1300
	1    0    0    -1  
$EndComp
$Comp
L power:GND #PWR01
U 1 1 5E974C7C
P 1250 1300
F 0 "#PWR01" H 1250 1050 50  0001 C CNN
F 1 "GND" H 1255 1127 50  0000 C CNN
F 2 "" H 1250 1300 50  0001 C CNN
F 3 "" H 1250 1300 50  0001 C CNN
	1    1250 1300
	1    0    0    -1  
$EndComp
$Comp
L power:GNDPWR #PWR02
U 1 1 5E975AE2
P 1650 1300
F 0 "#PWR02" H 1650 1100 50  0001 C CNN
F 1 "GNDPWR" H 1654 1146 50  0000 C CNN
F 2 "" H 1650 1250 50  0001 C CNN
F 3 "" H 1650 1250 50  0001 C CNN
	1    1650 1300
	1    0    0    -1  
$EndComp
$Comp
L power:+12V #PWR03
U 1 1 5E977728
P 2050 1300
F 0 "#PWR03" H 2050 1150 50  0001 C CNN
F 1 "+12V" H 2065 1473 50  0000 C CNN
F 2 "" H 2050 1300 50  0001 C CNN
F 3 "" H 2050 1300 50  0001 C CNN
	1    2050 1300
	-1   0    0    1   
$EndComp
$Comp
L Connector:Conn_01x03_Male J1
U 1 1 5E97ABC6
P 3250 3750
F 0 "J1" H 3223 3682 50  0000 R CNN
F 1 "Control" H 3223 3773 50  0000 R CNN
F 2 "Connector_PinHeader_2.54mm:PinHeader_1x03_P2.54mm_Vertical" H 3250 3750 50  0001 C CNN
F 3 "~" H 3250 3750 50  0001 C CNN
	1    3250 3750
	1    0    0    1   
$EndComp
Text GLabel 3450 3750 2    50   Input ~ 0
S1
Text GLabel 3450 3650 2    50   Input ~ 0
S2
$Comp
L power:GND #PWR04
U 1 1 5E982726
P 3450 3850
F 0 "#PWR04" H 3450 3600 50  0001 C CNN
F 1 "GND" H 3455 3677 50  0000 C CNN
F 2 "" H 3450 3850 50  0001 C CNN
F 3 "" H 3450 3850 50  0001 C CNN
	1    3450 3850
	1    0    0    -1  
$EndComp
$Comp
L Connector:Conn_01x02_Male J2
U 1 1 5E984C20
P 7950 3550
F 0 "J2" H 7923 3432 50  0000 R CNN
F 1 "Motor" H 7923 3523 50  0000 R CNN
F 2 "TerminalBlock_MetzConnect:TerminalBlock_MetzConnect_Type094_RT03502HBLU_1x02_P5.00mm_Horizontal" H 7950 3550 50  0001 C CNN
F 3 "~" H 7950 3550 50  0001 C CNN
	1    7950 3550
	1    0    0    1   
$EndComp
Text GLabel 8150 3450 2    50   Input ~ 0
M+
Text GLabel 8150 3550 2    50   Input ~ 0
M-
Wire Wire Line
	5950 2050 6200 2050
Wire Wire Line
	5350 2050 5700 2050
Wire Wire Line
	6600 2300 6600 2050
Wire Wire Line
	5350 2050 5350 2300
Wire Wire Line
	5700 2600 5700 2050
Connection ~ 5700 2050
Wire Wire Line
	5700 2050 5950 2050
Wire Wire Line
	6200 2600 6200 2050
Connection ~ 6200 2050
Wire Wire Line
	6200 2050 6600 2050
$Comp
L Connector:Conn_01x02_Male J3
U 1 1 5E961567
P 7950 4000
F 0 "J3" H 7923 3882 50  0000 R CNN
F 1 "12V" H 7923 3973 50  0000 R CNN
F 2 "TerminalBlock_MetzConnect:TerminalBlock_MetzConnect_Type094_RT03502HBLU_1x02_P5.00mm_Horizontal" H 7950 4000 50  0001 C CNN
F 3 "~" H 7950 4000 50  0001 C CNN
	1    7950 4000
	1    0    0    1   
$EndComp
$Comp
L power:+12V #PWR011
U 1 1 5E96241A
P 8150 3900
F 0 "#PWR011" H 8150 3750 50  0001 C CNN
F 1 "+12V" H 8165 4073 50  0000 C CNN
F 2 "" H 8150 3900 50  0001 C CNN
F 3 "" H 8150 3900 50  0001 C CNN
	1    8150 3900
	1    0    0    -1  
$EndComp
$Comp
L power:GNDPWR #PWR012
U 1 1 5E963A5F
P 8150 4000
F 0 "#PWR012" H 8150 3800 50  0001 C CNN
F 1 "GNDPWR" H 8154 3846 50  0000 C CNN
F 2 "" H 8150 3950 50  0001 C CNN
F 3 "" H 8150 3950 50  0001 C CNN
	1    8150 4000
	1    0    0    -1  
$EndComp
$Comp
L power:GND #PWR0101
U 1 1 5E98B6CF
P 1600 3450
F 0 "#PWR0101" H 1600 3200 50  0001 C CNN
F 1 "GND" H 1605 3277 50  0000 C CNN
F 2 "" H 1600 3450 50  0001 C CNN
F 3 "" H 1600 3450 50  0001 C CNN
	1    1600 3450
	1    0    0    -1  
$EndComp
$Comp
L power:GNDPWR #PWR0102
U 1 1 5E98CC66
P 1950 3450
F 0 "#PWR0102" H 1950 3250 50  0001 C CNN
F 1 "GNDPWR" H 1954 3296 50  0000 C CNN
F 2 "" H 1950 3400 50  0001 C CNN
F 3 "" H 1950 3400 50  0001 C CNN
	1    1950 3450
	1    0    0    -1  
$EndComp
Wire Wire Line
	1600 3450 1600 3350
Wire Wire Line
	1600 3350 1950 3350
Wire Wire Line
	1950 3350 1950 3450
$EndSCHEMATC
