G04 #@! TF.GenerationSoftware,KiCad,Pcbnew,5.1.10*
G04 #@! TF.CreationDate,2021-07-05T19:52:22-05:00*
G04 #@! TF.ProjectId,puenteHDiscreto,7075656e-7465-4484-9469-73637265746f,rev?*
G04 #@! TF.SameCoordinates,Original*
G04 #@! TF.FileFunction,Soldermask,Top*
G04 #@! TF.FilePolarity,Negative*
%FSLAX46Y46*%
G04 Gerber Fmt 4.6, Leading zero omitted, Abs format (unit mm)*
G04 Created by KiCad (PCBNEW 5.1.10) date 2021-07-05 19:52:22*
%MOMM*%
%LPD*%
G01*
G04 APERTURE LIST*
G04 #@! TA.AperFunction,Profile*
%ADD10C,0.100000*%
G04 #@! TD*
%ADD11C,5.702000*%
%ADD12O,1.702000X2.102000*%
%ADD13O,2.602000X1.702000*%
%ADD14O,2.302000X2.302000*%
%ADD15C,2.702000*%
%ADD16O,2.007000X3.102000*%
%ADD17O,1.702000X2.602000*%
%ADD18O,1.802000X2.302000*%
G04 APERTURE END LIST*
D10*
X166000000Y-56800000D02*
X166000000Y-96800000D01*
X86000000Y-56800000D02*
X166000000Y-56800000D01*
X86000000Y-96800000D02*
X86000000Y-56800000D01*
X166000000Y-96800000D02*
X86000000Y-96800000D01*
X166000000Y-56800000D02*
X166000000Y-96800000D01*
X86000000Y-56800000D02*
X166000000Y-56800000D01*
X86000000Y-96800000D02*
X86000000Y-56800000D01*
X166000000Y-96800000D02*
X86000000Y-96800000D01*
D11*
X89200000Y-60000000D03*
X89200000Y-93600000D03*
X162800000Y-93600000D03*
X162800000Y-60000000D03*
D12*
X97320000Y-78000000D03*
X102400000Y-85620000D03*
X99860000Y-78000000D03*
X99860000Y-85620000D03*
X102400000Y-78000000D03*
G36*
G01*
X98120000Y-86671000D02*
X96520000Y-86671000D01*
G75*
G02*
X96469000Y-86620000I0J51000D01*
G01*
X96469000Y-84620000D01*
G75*
G02*
X96520000Y-84569000I51000J0D01*
G01*
X98120000Y-84569000D01*
G75*
G02*
X98171000Y-84620000I0J-51000D01*
G01*
X98171000Y-86620000D01*
G75*
G02*
X98120000Y-86671000I-51000J0D01*
G01*
G37*
D13*
X103240000Y-89600000D03*
X113400000Y-89600000D03*
X143764000Y-89662000D03*
X153924000Y-89662000D03*
D14*
X153880000Y-81400000D03*
G36*
G01*
X147649000Y-82500000D02*
X147649000Y-80300000D01*
G75*
G02*
X147700000Y-80249000I51000J0D01*
G01*
X149900000Y-80249000D01*
G75*
G02*
X149951000Y-80300000I0J-51000D01*
G01*
X149951000Y-82500000D01*
G75*
G02*
X149900000Y-82551000I-51000J0D01*
G01*
X147700000Y-82551000D01*
G75*
G02*
X147649000Y-82500000I0J51000D01*
G01*
G37*
X148800000Y-69200000D03*
G36*
G01*
X155031000Y-68100000D02*
X155031000Y-70300000D01*
G75*
G02*
X154980000Y-70351000I-51000J0D01*
G01*
X152780000Y-70351000D01*
G75*
G02*
X152729000Y-70300000I0J51000D01*
G01*
X152729000Y-68100000D01*
G75*
G02*
X152780000Y-68049000I51000J0D01*
G01*
X154980000Y-68049000D01*
G75*
G02*
X155031000Y-68100000I0J-51000D01*
G01*
G37*
X116080000Y-81400000D03*
G36*
G01*
X109849000Y-82500000D02*
X109849000Y-80300000D01*
G75*
G02*
X109900000Y-80249000I51000J0D01*
G01*
X112100000Y-80249000D01*
G75*
G02*
X112151000Y-80300000I0J-51000D01*
G01*
X112151000Y-82500000D01*
G75*
G02*
X112100000Y-82551000I-51000J0D01*
G01*
X109900000Y-82551000D01*
G75*
G02*
X109849000Y-82500000I0J51000D01*
G01*
G37*
X108320000Y-69200000D03*
G36*
G01*
X114551000Y-68100000D02*
X114551000Y-70300000D01*
G75*
G02*
X114500000Y-70351000I-51000J0D01*
G01*
X112300000Y-70351000D01*
G75*
G02*
X112249000Y-70300000I0J51000D01*
G01*
X112249000Y-68100000D01*
G75*
G02*
X112300000Y-68049000I51000J0D01*
G01*
X114500000Y-68049000D01*
G75*
G02*
X114551000Y-68100000I0J-51000D01*
G01*
G37*
D15*
X128600000Y-65200000D03*
G36*
G01*
X122249000Y-66500000D02*
X122249000Y-63900000D01*
G75*
G02*
X122300000Y-63849000I51000J0D01*
G01*
X124900000Y-63849000D01*
G75*
G02*
X124951000Y-63900000I0J-51000D01*
G01*
X124951000Y-66500000D01*
G75*
G02*
X124900000Y-66551000I-51000J0D01*
G01*
X122300000Y-66551000D01*
G75*
G02*
X122249000Y-66500000I0J51000D01*
G01*
G37*
X123600000Y-77200000D03*
G36*
G01*
X129951000Y-75900000D02*
X129951000Y-78500000D01*
G75*
G02*
X129900000Y-78551000I-51000J0D01*
G01*
X127300000Y-78551000D01*
G75*
G02*
X127249000Y-78500000I0J51000D01*
G01*
X127249000Y-75900000D01*
G75*
G02*
X127300000Y-75849000I51000J0D01*
G01*
X129900000Y-75849000D01*
G75*
G02*
X129951000Y-75900000I0J-51000D01*
G01*
G37*
D16*
X153880000Y-76200000D03*
X151340000Y-76200000D03*
G36*
G01*
X147796500Y-77700000D02*
X147796500Y-74700000D01*
G75*
G02*
X147847500Y-74649000I51000J0D01*
G01*
X149752500Y-74649000D01*
G75*
G02*
X149803500Y-74700000I0J-51000D01*
G01*
X149803500Y-77700000D01*
G75*
G02*
X149752500Y-77751000I-51000J0D01*
G01*
X147847500Y-77751000D01*
G75*
G02*
X147796500Y-77700000I0J51000D01*
G01*
G37*
X153880000Y-64000000D03*
X151340000Y-64000000D03*
G36*
G01*
X147796500Y-65500000D02*
X147796500Y-62500000D01*
G75*
G02*
X147847500Y-62449000I51000J0D01*
G01*
X149752500Y-62449000D01*
G75*
G02*
X149803500Y-62500000I0J-51000D01*
G01*
X149803500Y-65500000D01*
G75*
G02*
X149752500Y-65551000I-51000J0D01*
G01*
X147847500Y-65551000D01*
G75*
G02*
X147796500Y-65500000I0J51000D01*
G01*
G37*
X113480000Y-76200000D03*
X110940000Y-76200000D03*
G36*
G01*
X107396500Y-77700000D02*
X107396500Y-74700000D01*
G75*
G02*
X107447500Y-74649000I51000J0D01*
G01*
X109352500Y-74649000D01*
G75*
G02*
X109403500Y-74700000I0J-51000D01*
G01*
X109403500Y-77700000D01*
G75*
G02*
X109352500Y-77751000I-51000J0D01*
G01*
X107447500Y-77751000D01*
G75*
G02*
X107396500Y-77700000I0J51000D01*
G01*
G37*
X113480000Y-64000000D03*
X110940000Y-64000000D03*
G36*
G01*
X107396500Y-65500000D02*
X107396500Y-62500000D01*
G75*
G02*
X107447500Y-62449000I51000J0D01*
G01*
X109352500Y-62449000D01*
G75*
G02*
X109403500Y-62500000I0J-51000D01*
G01*
X109403500Y-65500000D01*
G75*
G02*
X109352500Y-65551000I-51000J0D01*
G01*
X107447500Y-65551000D01*
G75*
G02*
X107396500Y-65500000I0J51000D01*
G01*
G37*
D17*
X141600000Y-64040000D03*
X141600000Y-74200000D03*
D12*
X136520000Y-78000000D03*
X141600000Y-85620000D03*
X139060000Y-78000000D03*
X139060000Y-85620000D03*
X141600000Y-78000000D03*
G36*
G01*
X137320000Y-86671000D02*
X135720000Y-86671000D01*
G75*
G02*
X135669000Y-86620000I0J51000D01*
G01*
X135669000Y-84620000D01*
G75*
G02*
X135720000Y-84569000I51000J0D01*
G01*
X137320000Y-84569000D01*
G75*
G02*
X137371000Y-84620000I0J-51000D01*
G01*
X137371000Y-86620000D01*
G75*
G02*
X137320000Y-86671000I-51000J0D01*
G01*
G37*
D17*
X136800000Y-64040000D03*
X136800000Y-74200000D03*
X102400000Y-74160000D03*
X102400000Y-64000000D03*
X97600000Y-64040000D03*
X97600000Y-74200000D03*
D18*
X128680000Y-90200000D03*
X126140000Y-90200000D03*
G36*
G01*
X124450000Y-91351000D02*
X122750000Y-91351000D01*
G75*
G02*
X122699000Y-91300000I0J51000D01*
G01*
X122699000Y-89100000D01*
G75*
G02*
X122750000Y-89049000I51000J0D01*
G01*
X124450000Y-89049000D01*
G75*
G02*
X124501000Y-89100000I0J-51000D01*
G01*
X124501000Y-91300000D01*
G75*
G02*
X124450000Y-91351000I-51000J0D01*
G01*
G37*
M02*
